lab1/range.vcd
$version Generated by VerilatedVcd $end
$date Mon Feb  9 15:38:54 2026
 $end
$timescale   1ns $end

 $scope module TOP $end
  $var wire  1 O" clk $end
  $var wire 16 o" count [15:0] $end
  $var wire  1 g" done $end
  $var wire  1 W" go $end
  $var wire 32 _" start [31:0] $end
  $scope module range $end
   $var wire 32 !# RAM_ADDR_BITS [31:0] $end
   $var wire 32 w" RAM_WORDS [31:0] $end
   $var wire  4 + addr [3:0] $end
   $var wire  1 ; cdone $end
   $var wire  1 3 cgo $end
   $var wire  1 O" clk $end
   $var wire 16 o" count [15:0] $end
   $var wire 16 k din [15:0] $end
   $var wire  1 g" done $end
   $var wire  1 W" go $end
   $var wire 16 s mem(0) [15:0] $end
   $var wire 16 t mem(1) [15:0] $end
   $var wire 16 } mem(10) [15:0] $end
   $var wire 16 ~ mem(11) [15:0] $end
   $var wire 16 !! mem(12) [15:0] $end
   $var wire 16 "! mem(13) [15:0] $end
   $var wire 16 #! mem(14) [15:0] $end
   $var wire 16 $! mem(15) [15:0] $end
   $var wire 16 u mem(2) [15:0] $end
   $var wire 16 v mem(3) [15:0] $end
   $var wire 16 w mem(4) [15:0] $end
   $var wire 16 x mem(5) [15:0] $end
   $var wire 16 y mem(6) [15:0] $end
   $var wire 16 z mem(7) [15:0] $end
   $var wire 16 { mem(8) [15:0] $end
   $var wire 16 | mem(9) [15:0] $end
   $var wire 32 C n [31:0] $end
   $var wire  4 K num [3:0] $end
   $var wire  1 S seen_done $end
   $var wire 32 _" start [31:0] $end
   $var wire  3 # state [2:0] $end
   $var wire 16 [ steps [15:0] $end
   $var wire  1 c we $end
   $scope module c1 $end
    $var wire  1 O" clk $end
    $var wire  1 ; done $end
    $var wire 32 7" dout [31:0] $end
    $var wire  1 3 go $end
    $var wire 32 C n [31:0] $end
    $var wire  1 ?" run $end
    $scope module unnamedblk1 $end
     $var wire 32 G" next_dout [31:0] $end
    $upscope $end
   $upscope $end
  $upscope $end
 $upscope $end
$enddefinitions $end


#0
b000 #
b0111 +
03
0;
b00000000000000000000000000000000 C
b0000 K
0S
b0000000000000000 [
0c
b0000000000000000 k
b0000000000000000 s
b0000000000000000 t
b0000000000000000 u
b0000000000000000 v
b0000000000000000 w
b0000000000000000 x
b0000000000000000 y
b0000000000000000 z
b0000000000000000 {
b0000000000000000 |
b0000000000000000 }
b0000000000000000 ~
b0000000000000000 !!
b0000000000000000 "!
b0000000000000000 #!
b0000000000000000 $!
b00000000000000000000000000000000 7"
0?"
b00000000000000000000000000000000 G"
0O"
1W"
b00000000000000000000000000000111 _"
0g"
b0000000000000000 o"
b00000000000000000000000000010000 w"
b00000000000000000000000000000100 !#
#10
b001 #
b00000000000000000000000000000111 C
1O"
#20
0O"
#30
b010 #
13
1O"
#40
0O"
0W"
#50
03
b0000000000000001 [
b00000000000000000000000000000111 7"
1?"
1O"
#60
0O"
#70
b0000000000000010 [
b00000000000000000000000000010110 7"
b00000000000000000000000000010110 G"
1O"
#80
0O"
#90
b0000000000000011 [
b00000000000000000000000000001011 7"
b00000000000000000000000000001011 G"
1O"
#100
0O"
#110
b0000000000000100 [
b00000000000000000000000000100010 7"
b00000000000000000000000000100010 G"
1O"
#120
0O"
#130
b0000000000000101 [
b00000000000000000000000000010001 7"
b00000000000000000000000000010001 G"
1O"
#140
0O"
#150
b0000000000000110 [
b00000000000000000000000000110100 7"
b00000000000000000000000000110100 G"
1O"
#160
0O"
#170
b0000000000000111 [
b00000000000000000000000000011010 7"
b00000000000000000000000000011010 G"
1O"
#180
0O"
#190
b0000000000001000 [
b00000000000000000000000000001101 7"
b00000000000000000000000000001101 G"
1O"
#200
0O"
#210
b0000000000001001 [
b00000000000000000000000000101000 7"
b00000000000000000000000000101000 G"
1O"
#220
0O"
#230
b0000000000001010 [
b00000000000000000000000000010100 7"
b00000000000000000000000000010100 G"
1O"
#240
0O"
#250
b0000000000001011 [
b00000000000000000000000000001010 7"
b00000000000000000000000000001010 G"
1O"
#260
0O"
#270
b0000000000001100 [
b00000000000000000000000000000101 7"
b00000000000000000000000000000101 G"
1O"
#280
0O"
#290
b0000000000001101 [
b00000000000000000000000000010000 7"
b00000000000000000000000000010000 G"
1O"
#300
0O"
#310
b0000000000001110 [
b00000000000000000000000000001000 7"
b00000000000000000000000000001000 G"
1O"
#320
0O"
#330
b0000000000001111 [
b00000000000000000000000000000100 7"
b00000000000000000000000000000100 G"
1O"
#340
0O"
#350
b0000000000010000 [
b00000000000000000000000000000010 7"
b00000000000000000000000000000010 G"
1O"
#360
0O"
#370
1;
b0000000000010001 [
b00000000000000000000000000000001 7"
0?"
b00000000000000000000000000000001 G"
1O"
#380
0O"
#390
b011 #
1S
b0000000000010001 k
1O"
#400
0O"
#410
b100 #
b0000 +
1c
1O"
#420
0O"
#430
b001 #
b0111 +
13
b00000000000000000000000000001000 C
b0001 K
0S
b0000000000000000 [
0c
b0000000000010001 s
1O"
#440
0O"
#450
b010 #
0;
b00000000000000000000000000001000 7"
1?"
1O"
#460
0O"
#470
03
b0000000000000001 [
1O"
#480
0O"
#490
b0000000000000010 [
b00000000000000000000000000000100 7"
b00000000000000000000000000000100 G"
1O"
#500
0O"
#510
b0000000000000011 [
b00000000000000000000000000000010 7"
b00000000000000000000000000000010 G"
1O"
#520
0O"
#530
1;
b0000000000000100 [
b00000000000000000000000000000001 7"
0?"
b00000000000000000000000000000001 G"
1O"
#540
0O"
#550
b011 #
1S
b0000000000000100 k
1O"
#560
0O"
#570
b100 #
b0001 +
1c
1O"
#580
0O"
#590
b001 #
b0111 +
13
b00000000000000000000000000001001 C
b0010 K
0S
b0000000000000000 [
0c
b0000000000000100 t
1O"
#600
0O"
#610
b010 #
0;
b00000000000000000000000000001001 7"
1?"
1O"
#620
0O"
#630
03
b0000000000000001 [
1O"
#640
0O"
#650
b0000000000000010 [
b00000000000000000000000000011100 7"
b00000000000000000000000000011100 G"
1O"
#660
0O"
#670
b0000000000000011 [
b00000000000000000000000000001110 7"
b00000000000000000000000000001110 G"
1O"
#680
0O"
#690
b0000000000000100 [
b00000000000000000000000000000111 7"
b00000000000000000000000000000111 G"
1O"
#700
0O"
#710
b0000000000000101 [
b00000000000000000000000000010110 7"
b00000000000000000000000000010110 G"
1O"
#720
0O"
#730
b0000000000000110 [
b00000000000000000000000000001011 7"
b00000000000000000000000000001011 G"
1O"
#740
0O"
#750
b0000000000000111 [
b00000000000000000000000000100010 7"
b00000000000000000000000000100010 G"
1O"
#760
0O"
#770
b0000000000001000 [
b00000000000000000000000000010001 7"
b00000000000000000000000000010001 G"
1O"
#780
0O"
#790
b0000000000001001 [
b00000000000000000000000000110100 7"
b00000000000000000000000000110100 G"
1O"
#800
0O"
#810
b0000000000001010 [
b00000000000000000000000000011010 7"
b00000000000000000000000000011010 G"
1O"
#820
0O"
#830
b0000000000001011 [
b00000000000000000000000000001101 7"
b00000000000000000000000000001101 G"
1O"
#840
0O"
#850
b0000000000001100 [
b00000000000000000000000000101000 7"
b00000000000000000000000000101000 G"
1O"
#860
0O"
#870
b0000000000001101 [
b00000000000000000000000000010100 7"
b00000000000000000000000000010100 G"
1O"
#880
0O"
#890
b0000000000001110 [
b00000000000000000000000000001010 7"
b00000000000000000000000000001010 G"
1O"
#900
0O"
#910
b0000000000001111 [
b00000000000000000000000000000101 7"
b00000000000000000000000000000101 G"
1O"
#920
0O"
#930
b0000000000010000 [
b00000000000000000000000000010000 7"
b00000000000000000000000000010000 G"
1O"
#940
0O"
#950
b0000000000010001 [
b00000000000000000000000000001000 7"
b00000000000000000000000000001000 G"
1O"
#960
0O"
#970
b0000000000010010 [
b00000000000000000000000000000100 7"
b00000000000000000000000000000100 G"
1O"
#980
0O"
#990
b0000000000010011 [
b00000000000000000000000000000010 7"
b00000000000000000000000000000010 G"
1O"
#1000
0O"
#1010
1;
b0000000000010100 [
b00000000000000000000000000000001 7"
0?"
b00000000000000000000000000000001 G"
1O"
#1020
0O"
#1030
b011 #
1S
b0000000000010100 k
1O"
#1040
0O"
#1050
b100 #
b0010 +
1c
1O"
#1060
0O"
#1070
b001 #
b0111 +
13
b00000000000000000000000000001010 C
b0011 K
0S
b0000000000000000 [
0c
b0000000000010100 u
1O"
#1080
0O"
#1090
b010 #
0;
b00000000000000000000000000001010 7"
1?"
1O"
#1100
0O"
#1110
03
b0000000000000001 [
1O"
#1120
0O"
#1130
b0000000000000010 [
b00000000000000000000000000000101 7"
b00000000000000000000000000000101 G"
1O"
#1140
0O"
#1150
b0000000000000011 [
b00000000000000000000000000010000 7"
b00000000000000000000000000010000 G"
1O"
#1160
0O"
#1170
b0000000000000100 [
b00000000000000000000000000001000 7"
b00000000000000000000000000001000 G"
1O"
#1180
0O"
#1190
b0000000000000101 [
b00000000000000000000000000000100 7"
b00000000000000000000000000000100 G"
1O"
#1200
0O"
#1210
b0000000000000110 [
b00000000000000000000000000000010 7"
b00000000000000000000000000000010 G"
1O"
#1220
0O"
#1230
1;
b0000000000000111 [
b00000000000000000000000000000001 7"
0?"
b00000000000000000000000000000001 G"
1O"
#1240
0O"
#1250
b011 #
1S
b0000000000000111 k
1O"
#1260
0O"
#1270
b100 #
b0011 +
1c
1O"
#1280
0O"
#1290
b001 #
b0111 +
13
b00000000000000000000000000001011 C
b0100 K
0S
b0000000000000000 [
0c
b0000000000000111 v
1O"
#1300
0O"
#1310
b010 #
0;
b00000000000000000000000000001011 7"
1?"
1O"
#1320
0O"
#1330
03
b0000000000000001 [
1O"
#1340
0O"
#1350
b0000000000000010 [
b00000000000000000000000000100010 7"
b00000000000000000000000000100010 G"
1O"
#1360
0O"
#1370
b0000000000000011 [
b00000000000000000000000000010001 7"
b00000000000000000000000000010001 G"
1O"
#1380
0O"
#1390
b0000000000000100 [
b00000000000000000000000000110100 7"
b00000000000000000000000000110100 G"
1O"
#1400
0O"
#1410
b0000000000000101 [
b00000000000000000000000000011010 7"
b00000000000000000000000000011010 G"
1O"
#1420
0O"
#1430
b0000000000000110 [
b00000000000000000000000000001101 7"
b00000000000000000000000000001101 G"
1O"
#1440
0O"
#1450
b0000000000000111 [
b00000000000000000000000000101000 7"
b00000000000000000000000000101000 G"
1O"
#1460
0O"
#1470
b0000000000001000 [
b00000000000000000000000000010100 7"
b00000000000000000000000000010100 G"
1O"
#1480
0O"
#1490
b0000000000001001 [
b00000000000000000000000000001010 7"
b00000000000000000000000000001010 G"
1O"
#1500
0O"
#1510
b0000000000001010 [
b00000000000000000000000000000101 7"
b00000000000000000000000000000101 G"
1O"
#1520
0O"
#1530
b0000000000001011 [
b00000000000000000000000000010000 7"
b00000000000000000000000000010000 G"
1O"
#1540
0O"
#1550
b0000000000001100 [
b00000000000000000000000000001000 7"
b00000000000000000000000000001000 G"
1O"
#1560
0O"
#1570
b0000000000001101 [
b00000000000000000000000000000100 7"
b00000000000000000000000000000100 G"
1O"
#1580
0O"
#1590
b0000000000001110 [
b00000000000000000000000000000010 7"
b00000000000000000000000000000010 G"
1O"
#1600
0O"
#1610
1;
b0000000000001111 [
b00000000000000000000000000000001 7"
0?"
b00000000000000000000000000000001 G"
1O"
#1620
0O"
#1630
b011 #
1S
b0000000000001111 k
1O"
#1640
0O"
#1650
b100 #
b0100 +
1c
1O"
#1660
0O"
#1670
b001 #
b0111 +
13
b00000000000000000000000000001100 C
b0101 K
0S
b0000000000000000 [
0c
b0000000000001111 w
1O"
#1680
0O"
#1690
b010 #
0;
b00000000000000000000000000001100 7"
1?"
1O"
#1700
0O"
#1710
03
b0000000000000001 [
1O"
#1720
0O"
#1730
b0000000000000010 [
b00000000000000000000000000000110 7"
b00000000000000000000000000000110 G"
1O"
#1740
0O"
#1750
b0000000000000011 [
b00000000000000000000000000000011 7"
b00000000000000000000000000000011 G"
1O"
#1760
0O"
#1770
b0000000000000100 [
b00000000000000000000000000001010 7"
b00000000000000000000000000001010 G"
1O"
#1780
0O"
#1790
b0000000000000101 [
b00000000000000000000000000000101 7"
b00000000000000000000000000000101 G"
1O"
#1800
0O"
#1810
b0000000000000110 [
b00000000000000000000000000010000 7"
b00000000000000000000000000010000 G"
1O"
#1820
0O"
#1830
b0000000000000111 [
b00000000000000000000000000001000 7"
b00000000000000000000000000001000 G"
1O"
#1840
0O"
#1850
b0000000000001000 [
b00000000000000000000000000000100 7"
b00000000000000000000000000000100 G"
1O"
#1860
0O"
#1870
b0000000000001001 [
b00000000000000000000000000000010 7"
b00000000000000000000000000000010 G"
1O"
#1880
0O"
#1890
1;
b0000000000001010 [
b00000000000000000000000000000001 7"
0?"
b00000000000000000000000000000001 G"
1O"
#1900
0O"
#1910
b011 #
1S
b0000000000001010 k
1O"
#1920
0O"
#1930
b100 #
b0101 +
1c
1O"
#1940
0O"
#1950
b001 #
b0111 +
13
b00000000000000000000000000001101 C
b0110 K
0S
b0000000000000000 [
0c
b0000000000001010 x
1O"
#1960
0O"
#1970
b010 #
0;
b00000000000000000000000000001101 7"
1?"
1O"
#1980
0O"
#1990
03
b0000000000000001 [
1O"
#2000
0O"
#2010
b0000000000000010 [
b00000000000000000000000000101000 7"
b00000000000000000000000000101000 G"
1O"
#2020
0O"
#2030
b0000000000000011 [
b00000000000000000000000000010100 7"
b00000000000000000000000000010100 G"
1O"
#2040
0O"
#2050
b0000000000000100 [
b00000000000000000000000000001010 7"
b00000000000000000000000000001010 G"
1O"
#2060
0O"
#2070
b0000000000000101 [
b00000000000000000000000000000101 7"
b00000000000000000000000000000101 G"
1O"
#2080
0O"
#2090
b0000000000000110 [
b00000000000000000000000000010000 7"
b00000000000000000000000000010000 G"
1O"
#2100
0O"
#2110
b0000000000000111 [
b00000000000000000000000000001000 7"
b00000000000000000000000000001000 G"
1O"
#2120
0O"
#2130
b0000000000001000 [
b00000000000000000000000000000100 7"
b00000000000000000000000000000100 G"
1O"
#2140
0O"
#2150
b0000000000001001 [
b00000000000000000000000000000010 7"
b00000000000000000000000000000010 G"
1O"
#2160
0O"
#2170
1;
b0000000000001010 [
b00000000000000000000000000000001 7"
0?"
b00000000000000000000000000000001 G"
1O"
#2180
0O"
#2190
b011 #
1S
1O"
#2200
0O"
#2210
b100 #
b0110 +
1c
1O"
#2220
0O"
#2230
b001 #
b0111 +
13
b00000000000000000000000000001110 C
b0111 K
0S
b0000000000000000 [
0c
b0000000000001010 y
1O"
#2240
0O"
#2250
b010 #
0;
b00000000000000000000000000001110 7"
1?"
1O"
#2260
0O"
#2270
03
b0000000000000001 [
1O"
#2280
0O"
#2290
b0000000000000010 [
b00000000000000000000000000000111 7"
b00000000000000000000000000000111 G"
1O"
#2300
0O"
#2310
b0000000000000011 [
b00000000000000000000000000010110 7"
b00000000000000000000000000010110 G"
1O"
#2320
0O"
#2330
b0000000000000100 [
b00000000000000000000000000001011 7"
b00000000000000000000000000001011 G"
1O"
#2340
0O"
#2350
b0000000000000101 [
b00000000000000000000000000100010 7"
b00000000000000000000000000100010 G"
1O"
#2360
0O"
#2370
b0000000000000110 [
b00000000000000000000000000010001 7"
b00000000000000000000000000010001 G"
1O"
#2380
0O"
#2390
b0000000000000111 [
b00000000000000000000000000110100 7"
b00000000000000000000000000110100 G"
1O"
#2400
0O"
#2410
b0000000000001000 [
b00000000000000000000000000011010 7"
b00000000000000000000000000011010 G"
1O"
#2420
0O"
#2430
b0000000000001001 [
b00000000000000000000000000001101 7"
b00000000000000000000000000001101 G"
1O"
#2440
0O"
#2450
b0000000000001010 [
b00000000000000000000000000101000 7"
b00000000000000000000000000101000 G"
1O"
#2460
0O"
#2470
b0000000000001011 [
b00000000000000000000000000010100 7"
b00000000000000000000000000010100 G"
1O"
#2480
0O"
#2490
b0000000000001100 [
b00000000000000000000000000001010 7"
b00000000000000000000000000001010 G"
1O"
#2500
0O"
#2510
b0000000000001101 [
b00000000000000000000000000000101 7"
b00000000000000000000000000000101 G"
1O"
#2520
0O"
#2530
b0000000000001110 [
b00000000000000000000000000010000 7"
b00000000000000000000000000010000 G"
1O"
#2540
0O"
#2550
b0000000000001111 [
b00000000000000000000000000001000 7"
b00000000000000000000000000001000 G"
1O"
#2560
0O"
#2570
b0000000000010000 [
b00000000000000000000000000000100 7"
b00000000000000000000000000000100 G"
1O"
#2580
0O"
#2590
b0000000000010001 [
b00000000000000000000000000000010 7"
b00000000000000000000000000000010 G"
1O"
#2600
0O"
#2610
1;
b0000000000010010 [
b00000000000000000000000000000001 7"
0?"
b00000000000000000000000000000001 G"
1O"
#2620
0O"
#2630
b011 #
1S
b0000000000010010 k
1O"
#2640
0O"
#2650
b100 #
1c
1O"
#2660
0O"
#2670
b001 #
13
b00000000000000000000000000001111 C
b1000 K
0S
b0000000000000000 [
0c
b0000000000010010 z
1O"
#2680
0O"
#2690
b010 #
0;
b00000000000000000000000000001111 7"
1?"
1O"
b0000000000010010 o"
#2700
0O"
#2710
03
b0000000000000001 [
1O"
#2720
0O"
#2730
b0000000000000010 [
b00000000000000000000000000101110 7"
b00000000000000000000000000101110 G"
1O"
#2740
0O"
#2750
b0000000000000011 [
b00000000000000000000000000010111 7"
b00000000000000000000000000010111 G"
1O"
#2760
0O"
#2770
b0000000000000100 [
b00000000000000000000000001000110 7"
b00000000000000000000000001000110 G"
1O"
#2780
0O"
#2790
b0000000000000101 [
b00000000000000000000000000100011 7"
b00000000000000000000000000100011 G"
1O"
#2800
0O"
#2810
b0000000000000110 [
b00000000000000000000000001101010 7"
b00000000000000000000000001101010 G"
1O"
#2820
0O"
#2830
b0000000000000111 [
b00000000000000000000000000110101 7"
b00000000000000000000000000110101 G"
1O"
#2840
0O"
#2850
b0000000000001000 [
b00000000000000000000000010100000 7"
b00000000000000000000000010100000 G"
1O"
#2860
0O"
#2870
b0000000000001001 [
b00000000000000000000000001010000 7"
b00000000000000000000000001010000 G"
1O"
#2880
0O"
#2890
b0000000000001010 [
b00000000000000000000000000101000 7"
b00000000000000000000000000101000 G"
1O"
#2900
0O"
#2910
b0000000000001011 [
b00000000000000000000000000010100 7"
b00000000000000000000000000010100 G"
1O"
#2920
0O"
#2930
b0000000000001100 [
b00000000000000000000000000001010 7"
b00000000000000000000000000001010 G"
1O"
#2940
0O"
#2950
b0000000000001101 [
b00000000000000000000000000000101 7"
b00000000000000000000000000000101 G"
1O"
#2960
0O"
#2970
b0000000000001110 [
b00000000000000000000000000010000 7"
b00000000000000000000000000010000 G"
1O"
#2980
0O"
#2990
b0000000000001111 [
b00000000000000000000000000001000 7"
b00000000000000000000000000001000 G"
1O"
#3000
0O"
#3010
b0000000000010000 [
b00000000000000000000000000000100 7"
b00000000000000000000000000000100 G"
1O"
#3020
0O"
#3030
b0000000000010001 [
b00000000000000000000000000000010 7"
b00000000000000000000000000000010 G"
1O"
#3040
0O"
#3050
1;
b0000000000010010 [
b00000000000000000000000000000001 7"
0?"
b00000000000000000000000000000001 G"
1O"
#3060
0O"
#3070
b011 #
1S
1O"
#3080
0O"
#3090
b100 #
b1000 +
1c
1O"
#3100
0O"
#3110
b001 #
b0111 +
13
b00000000000000000000000000010000 C
b1001 K
0S
b0000000000000000 [
0c
b0000000000010010 {
1O"
b0000000000000000 o"
#3120
0O"
#3130
b010 #
0;
b00000000000000000000000000010000 7"
1?"
1O"
b0000000000010010 o"
#3140
0O"
#3150
03
b0000000000000001 [
1O"
#3160
0O"
#3170
b0000000000000010 [
b00000000000000000000000000001000 7"
b00000000000000000000000000001000 G"
1O"
#3180
0O"
#3190
b0000000000000011 [
b00000000000000000000000000000100 7"
b00000000000000000000000000000100 G"
1O"
#3200
0O"
#3210
b0000000000000100 [
b00000000000000000000000000000010 7"
b00000000000000000000000000000010 G"
1O"
#3220
0O"
#3230
1;
b0000000000000101 [
b00000000000000000000000000000001 7"
0?"
b00000000000000000000000000000001 G"
1O"
#3240
0O"
#3250
b011 #
1S
b0000000000000101 k
1O"
#3260
0O"
#3270
b100 #
b1001 +
1c
1O"
#3280
0O"
#3290
b001 #
b0111 +
13
b00000000000000000000000000010001 C
b1010 K
0S
b0000000000000000 [
0c
b0000000000000101 |
1O"
b0000000000000000 o"
#3300
0O"
#3310
b010 #
0;
b00000000000000000000000000010001 7"
1?"
1O"
b0000000000010010 o"
#3320
0O"
#3330
03
b0000000000000001 [
1O"
#3340
0O"
#3350
b0000000000000010 [
b00000000000000000000000000110100 7"
b00000000000000000000000000110100 G"
1O"
#3360
0O"
#3370
b0000000000000011 [
b00000000000000000000000000011010 7"
b00000000000000000000000000011010 G"
1O"
#3380
0O"
#3390
b0000000000000100 [
b00000000000000000000000000001101 7"
b00000000000000000000000000001101 G"
1O"
#3400
0O"
#3410
b0000000000000101 [
b00000000000000000000000000101000 7"
b00000000000000000000000000101000 G"
1O"
#3420
0O"
#3430
b0000000000000110 [
b00000000000000000000000000010100 7"
b00000000000000000000000000010100 G"
1O"
#3440
0O"
#3450
b0000000000000111 [
b00000000000000000000000000001010 7"
b00000000000000000000000000001010 G"
1O"
#3460
0O"
#3470
b0000000000001000 [
b00000000000000000000000000000101 7"
b00000000000000000000000000000101 G"
1O"
#3480
0O"
#3490
b0000000000001001 [
b00000000000000000000000000010000 7"
b00000000000000000000000000010000 G"
1O"
#3500
0O"
#3510
b0000000000001010 [
b00000000000000000000000000001000 7"
b00000000000000000000000000001000 G"
1O"
#3520
0O"
#3530
b0000000000001011 [
b00000000000000000000000000000100 7"
b00000000000000000000000000000100 G"
1O"
#3540
0O"
#3550
b0000000000001100 [
b00000000000000000000000000000010 7"
b00000000000000000000000000000010 G"
1O"
#3560
0O"
#3570
1;
b0000000000001101 [
b00000000000000000000000000000001 7"
0?"
b00000000000000000000000000000001 G"
1O"
#3580
0O"
#3590
b011 #
1S
b0000000000001101 k
1O"
#3600
0O"
#3610
b100 #
b1010 +
1c
1O"
#3620
0O"
#3630
b001 #
b0111 +
13
b00000000000000000000000000010010 C
b1011 K
0S
b0000000000000000 [
0c
b0000000000001101 }
1O"
b0000000000000000 o"
#3640
0O"
#3650
b010 #
0;
b00000000000000000000000000010010 7"
1?"
1O"
b0000000000010010 o"
#3660
0O"
#3670
03
b0000000000000001 [
1O"
#3680
0O"
#3690
b0000000000000010 [
b00000000000000000000000000001001 7"
b00000000000000000000000000001001 G"
1O"
#3700
0O"
#3710
b0000000000000011 [
b00000000000000000000000000011100 7"
b00000000000000000000000000011100 G"
1O"
#3720
0O"
#3730
b0000000000000100 [
b00000000000000000000000000001110 7"
b00000000000000000000000000001110 G"
1O"
#3740
0O"
#3750
b0000000000000101 [
b00000000000000000000000000000111 7"
b00000000000000000000000000000111 G"
1O"
#3760
0O"
#3770
b0000000000000110 [
b00000000000000000000000000010110 7"
b00000000000000000000000000010110 G"
1O"
#3780
0O"
#3790
b0000000000000111 [
b00000000000000000000000000001011 7"
b00000000000000000000000000001011 G"
1O"
#3800
0O"
#3810
b0000000000001000 [
b00000000000000000000000000100010 7"
b00000000000000000000000000100010 G"
1O"
#3820
0O"
#3830
b0000000000001001 [
b00000000000000000000000000010001 7"
b00000000000000000000000000010001 G"
1O"
#3840
0O"
#3850
b0000000000001010 [
b00000000000000000000000000110100 7"
b00000000000000000000000000110100 G"
1O"
#3860
0O"
#3870
b0000000000001011 [
b00000000000000000000000000011010 7"
b00000000000000000000000000011010 G"
1O"
#3880
0O"
#3890
b0000000000001100 [
b00000000000000000000000000001101 7"
b00000000000000000000000000001101 G"
1O"
#3900
0O"
#3910
b0000000000001101 [
b00000000000000000000000000101000 7"
b00000000000000000000000000101000 G"
1O"
#3920
0O"
#3930
b0000000000001110 [
b00000000000000000000000000010100 7"
b00000000000000000000000000010100 G"
1O"
#3940
0O"
#3950
b0000000000001111 [
b00000000000000000000000000001010 7"
b00000000000000000000000000001010 G"
1O"
#3960
0O"
#3970
b0000000000010000 [
b00000000000000000000000000000101 7"
b00000000000000000000000000000101 G"
1O"
#3980
0O"
#3990
b0000000000010001 [
b00000000000000000000000000010000 7"
b00000000000000000000000000010000 G"
1O"
#4000
0O"
#4010
b0000000000010010 [
b00000000000000000000000000001000 7"
b00000000000000000000000000001000 G"
1O"
#4020
0O"
#4030
b0000000000010011 [
b00000000000000000000000000000100 7"
b00000000000000000000000000000100 G"
1O"
#4040
0O"
#4050
b0000000000010100 [
b00000000000000000000000000000010 7"
b00000000000000000000000000000010 G"
1O"
#4060
0O"
#4070
1;
b0000000000010101 [
b00000000000000000000000000000001 7"
0?"
b00000000000000000000000000000001 G"
1O"
#4080
0O"
#4090
b011 #
1S
b0000000000010101 k
1O"
#4100
0O"
#4110
b100 #
b1011 +
1c
1O"
#4120
0O"
#4130
b001 #
b0111 +
13
b00000000000000000000000000010011 C
b1100 K
0S
b0000000000000000 [
0c
b0000000000010101 ~
1O"
b0000000000000000 o"
#4140
0O"
#4150
b010 #
0;
b00000000000000000000000000010011 7"
1?"
1O"
b0000000000010010 o"
#4160
0O"
#4170
03
b0000000000000001 [
1O"
#4180
0O"
#4190
b0000000000000010 [
b00000000000000000000000000111010 7"
b00000000000000000000000000111010 G"
1O"
#4200
0O"
#4210
b0000000000000011 [
b00000000000000000000000000011101 7"
b00000000000000000000000000011101 G"
1O"
#4220
0O"
#4230
b0000000000000100 [
b00000000000000000000000001011000 7"
b00000000000000000000000001011000 G"
1O"
#4240
0O"
#4250
b0000000000000101 [
b00000000000000000000000000101100 7"
b00000000000000000000000000101100 G"
1O"
#4260
0O"
#4270
b0000000000000110 [
b00000000000000000000000000010110 7"
b00000000000000000000000000010110 G"
1O"
#4280
0O"
#4290
b0000000000000111 [
b00000000000000000000000000001011 7"
b00000000000000000000000000001011 G"
1O"
#4300
0O"
#4310
b0000000000001000 [
b00000000000000000000000000100010 7"
b00000000000000000000000000100010 G"
1O"
#4320
0O"
#4330
b0000000000001001 [
b00000000000000000000000000010001 7"
b00000000000000000000000000010001 G"
1O"
#4340
0O"
#4350
b0000000000001010 [
b00000000000000000000000000110100 7"
b00000000000000000000000000110100 G"
1O"
#4360
0O"
#4370
b0000000000001011 [
b00000000000000000000000000011010 7"
b00000000000000000000000000011010 G"
1O"
#4380
0O"
#4390
b0000000000001100 [
b00000000000000000000000000001101 7"
b00000000000000000000000000001101 G"
1O"
#4400
0O"
#4410
b0000000000001101 [
b00000000000000000000000000101000 7"
b00000000000000000000000000101000 G"
1O"
#4420
0O"
#4430
b0000000000001110 [
b00000000000000000000000000010100 7"
b00000000000000000000000000010100 G"
1O"
#4440
0O"
#4450
b0000000000001111 [
b00000000000000000000000000001010 7"
b00000000000000000000000000001010 G"
1O"
#4460
0O"
#4470
b0000000000010000 [
b00000000000000000000000000000101 7"
b00000000000000000000000000000101 G"
1O"
#4480
0O"
#4490
b0000000000010001 [
b00000000000000000000000000010000 7"
b00000000000000000000000000010000 G"
1O"
#4500
0O"
#4510
b0000000000010010 [
b00000000000000000000000000001000 7"
b00000000000000000000000000001000 G"
1O"
#4520
0O"
#4530
b0000000000010011 [
b00000000000000000000000000000100 7"
b00000000000000000000000000000100 G"
1O"
#4540
0O"
#4550
b0000000000010100 [
b00000000000000000000000000000010 7"
b00000000000000000000000000000010 G"
1O"
#4560
0O"
#4570
1;
b0000000000010101 [
b00000000000000000000000000000001 7"
0?"
b00000000000000000000000000000001 G"
1O"
#4580
0O"
#4590
b011 #
1S
1O"
#4600
0O"
#4610
b100 #
b1100 +
1c
1O"
#4620
0O"
#4630
b001 #
b0111 +
13
b00000000000000000000000000010100 C
b1101 K
0S
b0000000000000000 [
0c
b0000000000010101 !!
1O"
b0000000000000000 o"
#4640
0O"
#4650
b010 #
0;
b00000000000000000000000000010100 7"
1?"
1O"
b0000000000010010 o"
#4660
0O"
#4670
03
b0000000000000001 [
1O"
#4680
0O"
#4690
b0000000000000010 [
b00000000000000000000000000001010 7"
b00000000000000000000000000001010 G"
1O"
#4700
0O"
#4710
b0000000000000011 [
b00000000000000000000000000000101 7"
b00000000000000000000000000000101 G"
1O"
#4720
0O"
#4730
b0000000000000100 [
b00000000000000000000000000010000 7"
b00000000000000000000000000010000 G"
1O"
#4740
0O"
#4750
b0000000000000101 [
b00000000000000000000000000001000 7"
b00000000000000000000000000001000 G"
1O"
#4760
0O"
#4770
b0000000000000110 [
b00000000000000000000000000000100 7"
b00000000000000000000000000000100 G"
1O"
#4780
0O"
#4790
b0000000000000111 [
b00000000000000000000000000000010 7"
b00000000000000000000000000000010 G"
1O"
#4800
0O"
#4810
1;
b0000000000001000 [
b00000000000000000000000000000001 7"
0?"
b00000000000000000000000000000001 G"
1O"
#4820
0O"
#4830
b011 #
1S
b0000000000001000 k
1O"
#4840
0O"
#4850
b100 #
b1101 +
1c
1O"
#4860
0O"
#4870
b001 #
b0111 +
13
b00000000000000000000000000010101 C
b1110 K
0S
b0000000000000000 [
0c
b0000000000001000 "!
1O"
b0000000000000000 o"
#4880
0O"
#4890
b010 #
0;
b00000000000000000000000000010101 7"
1?"
1O"
b0000000000010010 o"
#4900
0O"
#4910
03
b0000000000000001 [
1O"
#4920
0O"
#4930
b0000000000000010 [
b00000000000000000000000001000000 7"
b00000000000000000000000001000000 G"
1O"
#4940
0O"
#4950
b0000000000000011 [
b00000000000000000000000000100000 7"
b00000000000000000000000000100000 G"
1O"
#4960
0O"
#4970
b0000000000000100 [
b00000000000000000000000000010000 7"
b00000000000000000000000000010000 G"
1O"
#4980
0O"
#4990
b0000000000000101 [
b00000000000000000000000000001000 7"
b00000000000000000000000000001000 G"
1O"
#5000
0O"
#5010
b0000000000000110 [
b00000000000000000000000000000100 7"
b00000000000000000000000000000100 G"
1O"
#5020
0O"
#5030
b0000000000000111 [
b00000000000000000000000000000010 7"
b00000000000000000000000000000010 G"
1O"
#5040
0O"
#5050
1;
b0000000000001000 [
b00000000000000000000000000000001 7"
0?"
b00000000000000000000000000000001 G"
1O"
#5060
0O"
#5070
b011 #
1S
1O"
