lab1/range.vcd
$version Generated by VerilatedVcd $end
$date Sat Feb  7 18:51:48 2026
 $end
$timescale   1ns $end

 $scope module TOP $end
  $var wire  1 G" clk $end
  $var wire 16 g" count [15:0] $end
  $var wire  1 _" done $end
  $var wire  1 O" go $end
  $var wire 32 W" start [31:0] $end
  $scope module range $end
   $var wire 32 w" RAM_ADDR_BITS [31:0] $end
   $var wire 32 o" RAM_WORDS [31:0] $end
   $var wire  4 + addr [3:0] $end
   $var wire  1 ; cdone $end
   $var wire  1 3 cgo $end
   $var wire  1 G" clk $end
   $var wire 16 g" count [15:0] $end
   $var wire 16 c din [15:0] $end
   $var wire  1 _" done $end
   $var wire  1 O" go $end
   $var wire 16 k mem(0) [15:0] $end
   $var wire 16 l mem(1) [15:0] $end
   $var wire 16 u mem(10) [15:0] $end
   $var wire 16 v mem(11) [15:0] $end
   $var wire 16 w mem(12) [15:0] $end
   $var wire 16 x mem(13) [15:0] $end
   $var wire 16 y mem(14) [15:0] $end
   $var wire 16 z mem(15) [15:0] $end
   $var wire 16 m mem(2) [15:0] $end
   $var wire 16 n mem(3) [15:0] $end
   $var wire 16 o mem(4) [15:0] $end
   $var wire 16 p mem(5) [15:0] $end
   $var wire 16 q mem(6) [15:0] $end
   $var wire 16 r mem(7) [15:0] $end
   $var wire 16 s mem(8) [15:0] $end
   $var wire 16 t mem(9) [15:0] $end
   $var wire 32 C n [31:0] $end
   $var wire  4 K num [3:0] $end
   $var wire 32 W" start [31:0] $end
   $var wire  3 # state [2:0] $end
   $var wire 16 S steps [15:0] $end
   $var wire  1 [ we $end
   $scope module c1 $end
    $var wire  1 G" clk $end
    $var wire  1 ; done $end
    $var wire 32 /" dout [31:0] $end
    $var wire  1 3 go $end
    $var wire 32 C n [31:0] $end
    $var wire  1 7" run $end
    $scope module unnamedblk1 $end
     $var wire 32 ?" next_dout [31:0] $end
    $upscope $end
   $upscope $end
  $upscope $end
 $upscope $end
$enddefinitions $end


#0
b000 #
b0111 +
03
0;
b00000000000000000000000000000000 C
b0000 K
b0000000000000000 S
0[
b0000000000000000 c
b0000000000000000 k
b0000000000000000 l
b0000000000000000 m
b0000000000000000 n
b0000000000000000 o
b0000000000000000 p
b0000000000000000 q
b0000000000000000 r
b0000000000000000 s
b0000000000000000 t
b0000000000000000 u
b0000000000000000 v
b0000000000000000 w
b0000000000000000 x
b0000000000000000 y
b0000000000000000 z
b00000000000000000000000000000000 /"
07"
b00000000000000000000000000000000 ?"
0G"
1O"
b00000000000000000000000000000111 W"
0_"
b0000000000000000 g"
b00000000000000000000000000010000 o"
b00000000000000000000000000000100 w"
#10
b001 #
13
b00000000000000000000000000000111 C
1G"
#20
0G"
#30
03
b0000000000000001 S
b00000000000000000000000000000111 /"
17"
1G"
#40
0G"
0O"
#50
b0000000000000010 S
b00000000000000000000000000010110 /"
b00000000000000000000000000010110 ?"
1G"
#60
0G"
#70
b0000000000000011 S
b00000000000000000000000000001011 /"
b00000000000000000000000000001011 ?"
1G"
#80
0G"
#90
b0000000000000100 S
b00000000000000000000000000100010 /"
b00000000000000000000000000100010 ?"
1G"
#100
0G"
#110
b0000000000000101 S
b00000000000000000000000000010001 /"
b00000000000000000000000000010001 ?"
1G"
#120
0G"
#130
b0000000000000110 S
b00000000000000000000000000110100 /"
b00000000000000000000000000110100 ?"
1G"
#140
0G"
#150
b0000000000000111 S
b00000000000000000000000000011010 /"
b00000000000000000000000000011010 ?"
1G"
#160
0G"
#170
b0000000000001000 S
b00000000000000000000000000001101 /"
b00000000000000000000000000001101 ?"
1G"
#180
0G"
#190
b0000000000001001 S
b00000000000000000000000000101000 /"
b00000000000000000000000000101000 ?"
1G"
#200
0G"
#210
b0000000000001010 S
b00000000000000000000000000010100 /"
b00000000000000000000000000010100 ?"
1G"
#220
0G"
#230
b0000000000001011 S
b00000000000000000000000000001010 /"
b00000000000000000000000000001010 ?"
1G"
#240
0G"
#250
b0000000000001100 S
b00000000000000000000000000000101 /"
b00000000000000000000000000000101 ?"
1G"
#260
0G"
#270
b0000000000001101 S
b00000000000000000000000000010000 /"
b00000000000000000000000000010000 ?"
1G"
#280
0G"
#290
b0000000000001110 S
b00000000000000000000000000001000 /"
b00000000000000000000000000001000 ?"
1G"
#300
0G"
#310
b0000000000001111 S
b00000000000000000000000000000100 /"
b00000000000000000000000000000100 ?"
1G"
#320
0G"
#330
b0000000000010000 S
b00000000000000000000000000000010 /"
b00000000000000000000000000000010 ?"
1G"
#340
0G"
#350
1;
b0000000000010001 S
b00000000000000000000000000000001 /"
07"
b00000000000000000000000000000001 ?"
1G"
#360
0G"
#370
b010 #
b0000000000010001 c
1G"
#380
0G"
#390
b011 #
b0000 +
1[
1G"
#400
0G"
#410
b001 #
b0111 +
13
0;
b00000000000000000000000000001000 C
b0001 K
b0000000000000000 S
0[
b0000000000010001 k
1G"
#420
0G"
#430
03
b0000000000000001 S
b00000000000000000000000000001000 /"
17"
1G"
#440
0G"
#450
b0000000000000010 S
b00000000000000000000000000000100 /"
b00000000000000000000000000000100 ?"
1G"
#460
0G"
#470
b0000000000000011 S
b00000000000000000000000000000010 /"
b00000000000000000000000000000010 ?"
1G"
#480
0G"
#490
1;
b0000000000000100 S
b00000000000000000000000000000001 /"
07"
b00000000000000000000000000000001 ?"
1G"
#500
0G"
#510
b010 #
b0000000000000100 c
1G"
#520
0G"
#530
b011 #
b0001 +
1[
1G"
#540
0G"
#550
b001 #
b0111 +
13
0;
b00000000000000000000000000001001 C
b0010 K
b0000000000000000 S
0[
b0000000000000100 l
1G"
#560
0G"
#570
03
b0000000000000001 S
b00000000000000000000000000001001 /"
17"
1G"
#580
0G"
#590
b0000000000000010 S
b00000000000000000000000000011100 /"
b00000000000000000000000000011100 ?"
1G"
#600
0G"
#610
b0000000000000011 S
b00000000000000000000000000001110 /"
b00000000000000000000000000001110 ?"
1G"
#620
0G"
#630
b0000000000000100 S
b00000000000000000000000000000111 /"
b00000000000000000000000000000111 ?"
1G"
#640
0G"
#650
b0000000000000101 S
b00000000000000000000000000010110 /"
b00000000000000000000000000010110 ?"
1G"
#660
0G"
#670
b0000000000000110 S
b00000000000000000000000000001011 /"
b00000000000000000000000000001011 ?"
1G"
#680
0G"
#690
b0000000000000111 S
b00000000000000000000000000100010 /"
b00000000000000000000000000100010 ?"
1G"
#700
0G"
#710
b0000000000001000 S
b00000000000000000000000000010001 /"
b00000000000000000000000000010001 ?"
1G"
#720
0G"
#730
b0000000000001001 S
b00000000000000000000000000110100 /"
b00000000000000000000000000110100 ?"
1G"
#740
0G"
#750
b0000000000001010 S
b00000000000000000000000000011010 /"
b00000000000000000000000000011010 ?"
1G"
#760
0G"
#770
b0000000000001011 S
b00000000000000000000000000001101 /"
b00000000000000000000000000001101 ?"
1G"
#780
0G"
#790
b0000000000001100 S
b00000000000000000000000000101000 /"
b00000000000000000000000000101000 ?"
1G"
#800
0G"
#810
b0000000000001101 S
b00000000000000000000000000010100 /"
b00000000000000000000000000010100 ?"
1G"
#820
0G"
#830
b0000000000001110 S
b00000000000000000000000000001010 /"
b00000000000000000000000000001010 ?"
1G"
#840
0G"
#850
b0000000000001111 S
b00000000000000000000000000000101 /"
b00000000000000000000000000000101 ?"
1G"
#860
0G"
#870
b0000000000010000 S
b00000000000000000000000000010000 /"
b00000000000000000000000000010000 ?"
1G"
#880
0G"
#890
b0000000000010001 S
b00000000000000000000000000001000 /"
b00000000000000000000000000001000 ?"
1G"
#900
0G"
#910
b0000000000010010 S
b00000000000000000000000000000100 /"
b00000000000000000000000000000100 ?"
1G"
#920
0G"
#930
b0000000000010011 S
b00000000000000000000000000000010 /"
b00000000000000000000000000000010 ?"
1G"
#940
0G"
#950
1;
b0000000000010100 S
b00000000000000000000000000000001 /"
07"
b00000000000000000000000000000001 ?"
1G"
#960
0G"
#970
b010 #
b0000000000010100 c
1G"
#980
0G"
#990
b011 #
b0010 +
1[
1G"
#1000
0G"
#1010
b001 #
b0111 +
13
0;
b00000000000000000000000000001010 C
b0011 K
b0000000000000000 S
0[
b0000000000010100 m
1G"
#1020
0G"
#1030
03
b0000000000000001 S
b00000000000000000000000000001010 /"
17"
1G"
#1040
0G"
#1050
b0000000000000010 S
b00000000000000000000000000000101 /"
b00000000000000000000000000000101 ?"
1G"
#1060
0G"
#1070
b0000000000000011 S
b00000000000000000000000000010000 /"
b00000000000000000000000000010000 ?"
1G"
#1080
0G"
#1090
b0000000000000100 S
b00000000000000000000000000001000 /"
b00000000000000000000000000001000 ?"
1G"
#1100
0G"
#1110
b0000000000000101 S
b00000000000000000000000000000100 /"
b00000000000000000000000000000100 ?"
1G"
#1120
0G"
#1130
b0000000000000110 S
b00000000000000000000000000000010 /"
b00000000000000000000000000000010 ?"
1G"
#1140
0G"
#1150
1;
b0000000000000111 S
b00000000000000000000000000000001 /"
07"
b00000000000000000000000000000001 ?"
1G"
#1160
0G"
#1170
b010 #
b0000000000000111 c
1G"
#1180
0G"
#1190
b011 #
b0011 +
1[
1G"
#1200
0G"
#1210
b001 #
b0111 +
13
0;
b00000000000000000000000000001011 C
b0100 K
b0000000000000000 S
0[
b0000000000000111 n
1G"
#1220
0G"
#1230
03
b0000000000000001 S
b00000000000000000000000000001011 /"
17"
1G"
#1240
0G"
#1250
b0000000000000010 S
b00000000000000000000000000100010 /"
b00000000000000000000000000100010 ?"
1G"
#1260
0G"
#1270
b0000000000000011 S
b00000000000000000000000000010001 /"
b00000000000000000000000000010001 ?"
1G"
#1280
0G"
#1290
b0000000000000100 S
b00000000000000000000000000110100 /"
b00000000000000000000000000110100 ?"
1G"
#1300
0G"
#1310
b0000000000000101 S
b00000000000000000000000000011010 /"
b00000000000000000000000000011010 ?"
1G"
#1320
0G"
#1330
b0000000000000110 S
b00000000000000000000000000001101 /"
b00000000000000000000000000001101 ?"
1G"
#1340
0G"
#1350
b0000000000000111 S
b00000000000000000000000000101000 /"
b00000000000000000000000000101000 ?"
1G"
#1360
0G"
#1370
b0000000000001000 S
b00000000000000000000000000010100 /"
b00000000000000000000000000010100 ?"
1G"
#1380
0G"
#1390
b0000000000001001 S
b00000000000000000000000000001010 /"
b00000000000000000000000000001010 ?"
1G"
#1400
0G"
#1410
b0000000000001010 S
b00000000000000000000000000000101 /"
b00000000000000000000000000000101 ?"
1G"
#1420
0G"
#1430
b0000000000001011 S
b00000000000000000000000000010000 /"
b00000000000000000000000000010000 ?"
1G"
#1440
0G"
#1450
b0000000000001100 S
b00000000000000000000000000001000 /"
b00000000000000000000000000001000 ?"
1G"
#1460
0G"
#1470
b0000000000001101 S
b00000000000000000000000000000100 /"
b00000000000000000000000000000100 ?"
1G"
#1480
0G"
#1490
b0000000000001110 S
b00000000000000000000000000000010 /"
b00000000000000000000000000000010 ?"
1G"
#1500
0G"
#1510
1;
b0000000000001111 S
b00000000000000000000000000000001 /"
07"
b00000000000000000000000000000001 ?"
1G"
#1520
0G"
#1530
b010 #
b0000000000001111 c
1G"
#1540
0G"
#1550
b011 #
b0100 +
1[
1G"
#1560
0G"
#1570
b001 #
b0111 +
13
0;
b00000000000000000000000000001100 C
b0101 K
b0000000000000000 S
0[
b0000000000001111 o
1G"
#1580
0G"
#1590
03
b0000000000000001 S
b00000000000000000000000000001100 /"
17"
1G"
#1600
0G"
#1610
b0000000000000010 S
b00000000000000000000000000000110 /"
b00000000000000000000000000000110 ?"
1G"
#1620
0G"
#1630
b0000000000000011 S
b00000000000000000000000000000011 /"
b00000000000000000000000000000011 ?"
1G"
#1640
0G"
#1650
b0000000000000100 S
b00000000000000000000000000001010 /"
b00000000000000000000000000001010 ?"
1G"
#1660
0G"
#1670
b0000000000000101 S
b00000000000000000000000000000101 /"
b00000000000000000000000000000101 ?"
1G"
#1680
0G"
#1690
b0000000000000110 S
b00000000000000000000000000010000 /"
b00000000000000000000000000010000 ?"
1G"
#1700
0G"
#1710
b0000000000000111 S
b00000000000000000000000000001000 /"
b00000000000000000000000000001000 ?"
1G"
#1720
0G"
#1730
b0000000000001000 S
b00000000000000000000000000000100 /"
b00000000000000000000000000000100 ?"
1G"
#1740
0G"
#1750
b0000000000001001 S
b00000000000000000000000000000010 /"
b00000000000000000000000000000010 ?"
1G"
#1760
0G"
#1770
1;
b0000000000001010 S
b00000000000000000000000000000001 /"
07"
b00000000000000000000000000000001 ?"
1G"
#1780
0G"
#1790
b010 #
b0000000000001010 c
1G"
#1800
0G"
#1810
b011 #
b0101 +
1[
1G"
#1820
0G"
#1830
b001 #
b0111 +
13
0;
b00000000000000000000000000001101 C
b0110 K
b0000000000000000 S
0[
b0000000000001010 p
1G"
#1840
0G"
#1850
03
b0000000000000001 S
b00000000000000000000000000001101 /"
17"
1G"
#1860
0G"
#1870
b0000000000000010 S
b00000000000000000000000000101000 /"
b00000000000000000000000000101000 ?"
1G"
#1880
0G"
#1890
b0000000000000011 S
b00000000000000000000000000010100 /"
b00000000000000000000000000010100 ?"
1G"
#1900
0G"
#1910
b0000000000000100 S
b00000000000000000000000000001010 /"
b00000000000000000000000000001010 ?"
1G"
#1920
0G"
#1930
b0000000000000101 S
b00000000000000000000000000000101 /"
b00000000000000000000000000000101 ?"
1G"
#1940
0G"
#1950
b0000000000000110 S
b00000000000000000000000000010000 /"
b00000000000000000000000000010000 ?"
1G"
#1960
0G"
#1970
b0000000000000111 S
b00000000000000000000000000001000 /"
b00000000000000000000000000001000 ?"
1G"
#1980
0G"
#1990
b0000000000001000 S
b00000000000000000000000000000100 /"
b00000000000000000000000000000100 ?"
1G"
#2000
0G"
#2010
b0000000000001001 S
b00000000000000000000000000000010 /"
b00000000000000000000000000000010 ?"
1G"
#2020
0G"
#2030
1;
b0000000000001010 S
b00000000000000000000000000000001 /"
07"
b00000000000000000000000000000001 ?"
1G"
#2040
0G"
#2050
b010 #
1G"
#2060
0G"
#2070
b011 #
b0110 +
1[
1G"
#2080
0G"
#2090
b001 #
b0111 +
13
0;
b00000000000000000000000000001110 C
b0111 K
b0000000000000000 S
0[
b0000000000001010 q
1G"
#2100
0G"
#2110
03
b0000000000000001 S
b00000000000000000000000000001110 /"
17"
1G"
#2120
0G"
#2130
b0000000000000010 S
b00000000000000000000000000000111 /"
b00000000000000000000000000000111 ?"
1G"
#2140
0G"
#2150
b0000000000000011 S
b00000000000000000000000000010110 /"
b00000000000000000000000000010110 ?"
1G"
#2160
0G"
#2170
b0000000000000100 S
b00000000000000000000000000001011 /"
b00000000000000000000000000001011 ?"
1G"
#2180
0G"
#2190
b0000000000000101 S
b00000000000000000000000000100010 /"
b00000000000000000000000000100010 ?"
1G"
#2200
0G"
#2210
b0000000000000110 S
b00000000000000000000000000010001 /"
b00000000000000000000000000010001 ?"
1G"
#2220
0G"
#2230
b0000000000000111 S
b00000000000000000000000000110100 /"
b00000000000000000000000000110100 ?"
1G"
#2240
0G"
#2250
b0000000000001000 S
b00000000000000000000000000011010 /"
b00000000000000000000000000011010 ?"
1G"
#2260
0G"
#2270
b0000000000001001 S
b00000000000000000000000000001101 /"
b00000000000000000000000000001101 ?"
1G"
#2280
0G"
#2290
b0000000000001010 S
b00000000000000000000000000101000 /"
b00000000000000000000000000101000 ?"
1G"
#2300
0G"
#2310
b0000000000001011 S
b00000000000000000000000000010100 /"
b00000000000000000000000000010100 ?"
1G"
#2320
0G"
#2330
b0000000000001100 S
b00000000000000000000000000001010 /"
b00000000000000000000000000001010 ?"
1G"
#2340
0G"
#2350
b0000000000001101 S
b00000000000000000000000000000101 /"
b00000000000000000000000000000101 ?"
1G"
#2360
0G"
#2370
b0000000000001110 S
b00000000000000000000000000010000 /"
b00000000000000000000000000010000 ?"
1G"
#2380
0G"
#2390
b0000000000001111 S
b00000000000000000000000000001000 /"
b00000000000000000000000000001000 ?"
1G"
#2400
0G"
#2410
b0000000000010000 S
b00000000000000000000000000000100 /"
b00000000000000000000000000000100 ?"
1G"
#2420
0G"
#2430
b0000000000010001 S
b00000000000000000000000000000010 /"
b00000000000000000000000000000010 ?"
1G"
#2440
0G"
#2450
1;
b0000000000010010 S
b00000000000000000000000000000001 /"
07"
b00000000000000000000000000000001 ?"
1G"
#2460
0G"
#2470
b010 #
b0000000000010010 c
1G"
#2480
0G"
#2490
b011 #
1[
1G"
#2500
0G"
#2510
b001 #
13
0;
b00000000000000000000000000001111 C
b1000 K
b0000000000000000 S
0[
b0000000000010010 r
1G"
#2520
0G"
#2530
03
b0000000000000001 S
b00000000000000000000000000001111 /"
17"
1G"
b0000000000010010 g"
#2540
0G"
#2550
b0000000000000010 S
b00000000000000000000000000101110 /"
b00000000000000000000000000101110 ?"
1G"
#2560
0G"
#2570
b0000000000000011 S
b00000000000000000000000000010111 /"
b00000000000000000000000000010111 ?"
1G"
#2580
0G"
#2590
b0000000000000100 S
b00000000000000000000000001000110 /"
b00000000000000000000000001000110 ?"
1G"
#2600
0G"
#2610
b0000000000000101 S
b00000000000000000000000000100011 /"
b00000000000000000000000000100011 ?"
1G"
#2620
0G"
#2630
b0000000000000110 S
b00000000000000000000000001101010 /"
b00000000000000000000000001101010 ?"
1G"
#2640
0G"
#2650
b0000000000000111 S
b00000000000000000000000000110101 /"
b00000000000000000000000000110101 ?"
1G"
#2660
0G"
#2670
b0000000000001000 S
b00000000000000000000000010100000 /"
b00000000000000000000000010100000 ?"
1G"
#2680
0G"
#2690
b0000000000001001 S
b00000000000000000000000001010000 /"
b00000000000000000000000001010000 ?"
1G"
#2700
0G"
#2710
b0000000000001010 S
b00000000000000000000000000101000 /"
b00000000000000000000000000101000 ?"
1G"
#2720
0G"
#2730
b0000000000001011 S
b00000000000000000000000000010100 /"
b00000000000000000000000000010100 ?"
1G"
#2740
0G"
#2750
b0000000000001100 S
b00000000000000000000000000001010 /"
b00000000000000000000000000001010 ?"
1G"
#2760
0G"
#2770
b0000000000001101 S
b00000000000000000000000000000101 /"
b00000000000000000000000000000101 ?"
1G"
#2780
0G"
#2790
b0000000000001110 S
b00000000000000000000000000010000 /"
b00000000000000000000000000010000 ?"
1G"
#2800
0G"
#2810
b0000000000001111 S
b00000000000000000000000000001000 /"
b00000000000000000000000000001000 ?"
1G"
#2820
0G"
#2830
b0000000000010000 S
b00000000000000000000000000000100 /"
b00000000000000000000000000000100 ?"
1G"
#2840
0G"
#2850
b0000000000010001 S
b00000000000000000000000000000010 /"
b00000000000000000000000000000010 ?"
1G"
#2860
0G"
#2870
1;
b0000000000010010 S
b00000000000000000000000000000001 /"
07"
b00000000000000000000000000000001 ?"
1G"
#2880
0G"
#2890
b010 #
1G"
#2900
0G"
#2910
b011 #
b1000 +
1[
1G"
#2920
0G"
#2930
b001 #
b0111 +
13
0;
b00000000000000000000000000010000 C
b1001 K
b0000000000000000 S
0[
b0000000000010010 s
1G"
b0000000000000000 g"
#2940
0G"
#2950
03
b0000000000000001 S
b00000000000000000000000000010000 /"
17"
1G"
b0000000000010010 g"
#2960
0G"
#2970
b0000000000000010 S
b00000000000000000000000000001000 /"
b00000000000000000000000000001000 ?"
1G"
#2980
0G"
#2990
b0000000000000011 S
b00000000000000000000000000000100 /"
b00000000000000000000000000000100 ?"
1G"
#3000
0G"
#3010
b0000000000000100 S
b00000000000000000000000000000010 /"
b00000000000000000000000000000010 ?"
1G"
#3020
0G"
#3030
1;
b0000000000000101 S
b00000000000000000000000000000001 /"
07"
b00000000000000000000000000000001 ?"
1G"
#3040
0G"
#3050
b010 #
b0000000000000101 c
1G"
#3060
0G"
#3070
b011 #
b1001 +
1[
1G"
#3080
0G"
#3090
b001 #
b0111 +
13
0;
b00000000000000000000000000010001 C
b1010 K
b0000000000000000 S
0[
b0000000000000101 t
1G"
b0000000000000000 g"
#3100
0G"
#3110
03
b0000000000000001 S
b00000000000000000000000000010001 /"
17"
1G"
b0000000000010010 g"
#3120
0G"
#3130
b0000000000000010 S
b00000000000000000000000000110100 /"
b00000000000000000000000000110100 ?"
1G"
#3140
0G"
#3150
b0000000000000011 S
b00000000000000000000000000011010 /"
b00000000000000000000000000011010 ?"
1G"
#3160
0G"
#3170
b0000000000000100 S
b00000000000000000000000000001101 /"
b00000000000000000000000000001101 ?"
1G"
#3180
0G"
#3190
b0000000000000101 S
b00000000000000000000000000101000 /"
b00000000000000000000000000101000 ?"
1G"
#3200
0G"
#3210
b0000000000000110 S
b00000000000000000000000000010100 /"
b00000000000000000000000000010100 ?"
1G"
#3220
0G"
#3230
b0000000000000111 S
b00000000000000000000000000001010 /"
b00000000000000000000000000001010 ?"
1G"
#3240
0G"
#3250
b0000000000001000 S
b00000000000000000000000000000101 /"
b00000000000000000000000000000101 ?"
1G"
#3260
0G"
#3270
b0000000000001001 S
b00000000000000000000000000010000 /"
b00000000000000000000000000010000 ?"
1G"
#3280
0G"
#3290
b0000000000001010 S
b00000000000000000000000000001000 /"
b00000000000000000000000000001000 ?"
1G"
#3300
0G"
#3310
b0000000000001011 S
b00000000000000000000000000000100 /"
b00000000000000000000000000000100 ?"
1G"
#3320
0G"
#3330
b0000000000001100 S
b00000000000000000000000000000010 /"
b00000000000000000000000000000010 ?"
1G"
#3340
0G"
#3350
1;
b0000000000001101 S
b00000000000000000000000000000001 /"
07"
b00000000000000000000000000000001 ?"
1G"
#3360
0G"
#3370
b010 #
b0000000000001101 c
1G"
#3380
0G"
#3390
b011 #
b1010 +
1[
1G"
#3400
0G"
#3410
b001 #
b0111 +
13
0;
b00000000000000000000000000010010 C
b1011 K
b0000000000000000 S
0[
b0000000000001101 u
1G"
b0000000000000000 g"
#3420
0G"
#3430
03
b0000000000000001 S
b00000000000000000000000000010010 /"
17"
1G"
b0000000000010010 g"
#3440
0G"
#3450
b0000000000000010 S
b00000000000000000000000000001001 /"
b00000000000000000000000000001001 ?"
1G"
#3460
0G"
#3470
b0000000000000011 S
b00000000000000000000000000011100 /"
b00000000000000000000000000011100 ?"
1G"
#3480
0G"
#3490
b0000000000000100 S
b00000000000000000000000000001110 /"
b00000000000000000000000000001110 ?"
1G"
#3500
0G"
#3510
b0000000000000101 S
b00000000000000000000000000000111 /"
b00000000000000000000000000000111 ?"
1G"
#3520
0G"
#3530
b0000000000000110 S
b00000000000000000000000000010110 /"
b00000000000000000000000000010110 ?"
1G"
#3540
0G"
#3550
b0000000000000111 S
b00000000000000000000000000001011 /"
b00000000000000000000000000001011 ?"
1G"
#3560
0G"
#3570
b0000000000001000 S
b00000000000000000000000000100010 /"
b00000000000000000000000000100010 ?"
1G"
#3580
0G"
#3590
b0000000000001001 S
b00000000000000000000000000010001 /"
b00000000000000000000000000010001 ?"
1G"
#3600
0G"
#3610
b0000000000001010 S
b00000000000000000000000000110100 /"
b00000000000000000000000000110100 ?"
1G"
#3620
0G"
#3630
b0000000000001011 S
b00000000000000000000000000011010 /"
b00000000000000000000000000011010 ?"
1G"
#3640
0G"
#3650
b0000000000001100 S
b00000000000000000000000000001101 /"
b00000000000000000000000000001101 ?"
1G"
#3660
0G"
#3670
b0000000000001101 S
b00000000000000000000000000101000 /"
b00000000000000000000000000101000 ?"
1G"
#3680
0G"
#3690
b0000000000001110 S
b00000000000000000000000000010100 /"
b00000000000000000000000000010100 ?"
1G"
#3700
0G"
#3710
b0000000000001111 S
b00000000000000000000000000001010 /"
b00000000000000000000000000001010 ?"
1G"
#3720
0G"
#3730
b0000000000010000 S
b00000000000000000000000000000101 /"
b00000000000000000000000000000101 ?"
1G"
#3740
0G"
#3750
b0000000000010001 S
b00000000000000000000000000010000 /"
b00000000000000000000000000010000 ?"
1G"
#3760
0G"
#3770
b0000000000010010 S
b00000000000000000000000000001000 /"
b00000000000000000000000000001000 ?"
1G"
#3780
0G"
#3790
b0000000000010011 S
b00000000000000000000000000000100 /"
b00000000000000000000000000000100 ?"
1G"
#3800
0G"
#3810
b0000000000010100 S
b00000000000000000000000000000010 /"
b00000000000000000000000000000010 ?"
1G"
#3820
0G"
#3830
1;
b0000000000010101 S
b00000000000000000000000000000001 /"
07"
b00000000000000000000000000000001 ?"
1G"
#3840
0G"
#3850
b010 #
b0000000000010101 c
1G"
#3860
0G"
#3870
b011 #
b1011 +
1[
1G"
#3880
0G"
#3890
b001 #
b0111 +
13
0;
b00000000000000000000000000010011 C
b1100 K
b0000000000000000 S
0[
b0000000000010101 v
1G"
b0000000000000000 g"
#3900
0G"
#3910
03
b0000000000000001 S
b00000000000000000000000000010011 /"
17"
1G"
b0000000000010010 g"
#3920
0G"
#3930
b0000000000000010 S
b00000000000000000000000000111010 /"
b00000000000000000000000000111010 ?"
1G"
#3940
0G"
#3950
b0000000000000011 S
b00000000000000000000000000011101 /"
b00000000000000000000000000011101 ?"
1G"
#3960
0G"
#3970
b0000000000000100 S
b00000000000000000000000001011000 /"
b00000000000000000000000001011000 ?"
1G"
#3980
0G"
#3990
b0000000000000101 S
b00000000000000000000000000101100 /"
b00000000000000000000000000101100 ?"
1G"
#4000
0G"
#4010
b0000000000000110 S
b00000000000000000000000000010110 /"
b00000000000000000000000000010110 ?"
1G"
#4020
0G"
#4030
b0000000000000111 S
b00000000000000000000000000001011 /"
b00000000000000000000000000001011 ?"
1G"
#4040
0G"
#4050
b0000000000001000 S
b00000000000000000000000000100010 /"
b00000000000000000000000000100010 ?"
1G"
#4060
0G"
#4070
b0000000000001001 S
b00000000000000000000000000010001 /"
b00000000000000000000000000010001 ?"
1G"
#4080
0G"
#4090
b0000000000001010 S
b00000000000000000000000000110100 /"
b00000000000000000000000000110100 ?"
1G"
#4100
0G"
#4110
b0000000000001011 S
b00000000000000000000000000011010 /"
b00000000000000000000000000011010 ?"
1G"
#4120
0G"
#4130
b0000000000001100 S
b00000000000000000000000000001101 /"
b00000000000000000000000000001101 ?"
1G"
#4140
0G"
#4150
b0000000000001101 S
b00000000000000000000000000101000 /"
b00000000000000000000000000101000 ?"
1G"
#4160
0G"
#4170
b0000000000001110 S
b00000000000000000000000000010100 /"
b00000000000000000000000000010100 ?"
1G"
#4180
0G"
#4190
b0000000000001111 S
b00000000000000000000000000001010 /"
b00000000000000000000000000001010 ?"
1G"
#4200
0G"
#4210
b0000000000010000 S
b00000000000000000000000000000101 /"
b00000000000000000000000000000101 ?"
1G"
#4220
0G"
#4230
b0000000000010001 S
b00000000000000000000000000010000 /"
b00000000000000000000000000010000 ?"
1G"
#4240
0G"
#4250
b0000000000010010 S
b00000000000000000000000000001000 /"
b00000000000000000000000000001000 ?"
1G"
#4260
0G"
#4270
b0000000000010011 S
b00000000000000000000000000000100 /"
b00000000000000000000000000000100 ?"
1G"
#4280
0G"
#4290
b0000000000010100 S
b00000000000000000000000000000010 /"
b00000000000000000000000000000010 ?"
1G"
#4300
0G"
#4310
1;
b0000000000010101 S
b00000000000000000000000000000001 /"
07"
b00000000000000000000000000000001 ?"
1G"
#4320
0G"
#4330
b010 #
1G"
#4340
0G"
#4350
b011 #
b1100 +
1[
1G"
#4360
0G"
#4370
b001 #
b0111 +
13
0;
b00000000000000000000000000010100 C
b1101 K
b0000000000000000 S
0[
b0000000000010101 w
1G"
b0000000000000000 g"
#4380
0G"
#4390
03
b0000000000000001 S
b00000000000000000000000000010100 /"
17"
1G"
b0000000000010010 g"
#4400
0G"
#4410
b0000000000000010 S
b00000000000000000000000000001010 /"
b00000000000000000000000000001010 ?"
1G"
#4420
0G"
#4430
b0000000000000011 S
b00000000000000000000000000000101 /"
b00000000000000000000000000000101 ?"
1G"
#4440
0G"
#4450
b0000000000000100 S
b00000000000000000000000000010000 /"
b00000000000000000000000000010000 ?"
1G"
#4460
0G"
#4470
b0000000000000101 S
b00000000000000000000000000001000 /"
b00000000000000000000000000001000 ?"
1G"
#4480
0G"
#4490
b0000000000000110 S
b00000000000000000000000000000100 /"
b00000000000000000000000000000100 ?"
1G"
#4500
0G"
#4510
b0000000000000111 S
b00000000000000000000000000000010 /"
b00000000000000000000000000000010 ?"
1G"
#4520
0G"
#4530
1;
b0000000000001000 S
b00000000000000000000000000000001 /"
07"
b00000000000000000000000000000001 ?"
1G"
#4540
0G"
#4550
b010 #
b0000000000001000 c
1G"
#4560
0G"
#4570
b011 #
b1101 +
1[
1G"
#4580
0G"
#4590
b001 #
b0111 +
13
0;
b00000000000000000000000000010101 C
b1110 K
b0000000000000000 S
0[
b0000000000001000 x
1G"
b0000000000000000 g"
#4600
0G"
#4610
03
b0000000000000001 S
b00000000000000000000000000010101 /"
17"
1G"
b0000000000010010 g"
#4620
0G"
#4630
b0000000000000010 S
b00000000000000000000000001000000 /"
b00000000000000000000000001000000 ?"
1G"
#4640
0G"
#4650
b0000000000000011 S
b00000000000000000000000000100000 /"
b00000000000000000000000000100000 ?"
1G"
#4660
0G"
#4670
b0000000000000100 S
b00000000000000000000000000010000 /"
b00000000000000000000000000010000 ?"
1G"
#4680
0G"
#4690
b0000000000000101 S
b00000000000000000000000000001000 /"
b00000000000000000000000000001000 ?"
1G"
#4700
0G"
#4710
b0000000000000110 S
b00000000000000000000000000000100 /"
b00000000000000000000000000000100 ?"
1G"
#4720
0G"
#4730
b0000000000000111 S
b00000000000000000000000000000010 /"
b00000000000000000000000000000010 ?"
1G"
#4740
0G"
#4750
1;
b0000000000001000 S
b00000000000000000000000000000001 /"
07"
b00000000000000000000000000000001 ?"
1G"
#4760
0G"
#4770
b010 #
1G"
#4780
0G"
#4790
b011 #
b1110 +
1[
1G"
#4800
0G"
#4810
b001 #
b0111 +
13
0;
b00000000000000000000000000010110 C
b1111 K
b0000000000000000 S
0[
b0000000000001000 y
1G"
b0000000000000000 g"
#4820
0G"
#4830
03
b0000000000000001 S
b00000000000000000000000000010110 /"
17"
1G"
b0000000000010010 g"
#4840
0G"
#4850
b0000000000000010 S
b00000000000000000000000000001011 /"
b00000000000000000000000000001011 ?"
1G"
#4860
0G"
